{
    "$schema": "https://go.kicad.org/pcm/schemas/v1",
    "name": "NextPCB Plug-in for KiCad",
    "description": "Start prototype and assembly by sending files to NextPCB with just one click.",
    "description_full": "Start prototype and assembly by sending files to NextPCB with just one click.",
    "identifier": "com.gitlab.nextpcbofficial.NextPCB-Plug-in-for-Kicad",
    "type": "plugin",
    "author": {
        "name": "NextPCB.com",
        "contact": {
            "web": "https://www.nextpcb.com"
        }
    },
    "maintainer": {
        "name": "NextPCB.com",
        "contact": {
            "web": "https://www.nextpcb.com"
        }
    },
    "license": "MIT",
    "resources": {
        "homepage": "https://gitlab.com/nextpcbofficial/NextPCB-Plug-in-for-Kicad"
    },
    "versions": [
        {
            "version": "0.0.1",
            "status": "testing",
            "kicad_version": "6.00",
            "install_size": 14012,
            "download_size": 9457,
            "download_sha256": "06ccae7f8e2875b5ecf02e8f4663d43efafb2d2823c944653e3a4f82e358d3bf",
            "download_url": "https://gitlab.com/nextpcbofficial/nextpcb-plug-in-for-kicad-files/-/raw/main/NextPCB-Plug-in-for-Kicad-v0.0.1.zip"
        }
    ]
}